...................
----------------------------------------------------------------------
Ran 19 tests in 0.024s

OK
Name             Stmts   Miss Branch BrPart  Cover   Missing
------------------------------------------------------------
Collatz.py          41      1     16      1    96%   24
TestCollatz.py      66      0      8      0   100%
------------------------------------------------------------
TOTAL              107      1     24      1    98%
