1 10 20
100 200 125
201 210 89
900 1000 174
10 1 20
687325 371621 509
501494 27586 449
127998 875294 525
720319 840125 525
206243 529395 470
123159 943665 525
274329 638847 509
869873 108551 525
679709 252875 509
671369 851411 525
563321 4374 470
977514 157326 525
283320 246676 407
953968 372738 525
170359 812964 509
596196 331782 470
164334 180361 352
446639 486285 444
44712 655583 509
130827 851430 525
550766 370816 470
446978 514489 470
980445 488228 525
144078 487979 449
144034 802086 509
515162 849271 525
581879 656294 509
477519 504258 426
23887 434590 449
677401 188627 509
155894 445389 449
428691 318103 449
987346 649045 525
226941 523917 470
85999 503457 449
458006 97263 449
487801 899216 525
995990 412099 525
902585 602803 525
759555 340442 509
113967 240735 443
553010 98640 470
996747 34601 525
655558 72358 509
625515 433810 470
781434 365579 509
901859 9437 525
383092 538699 470
405774 859676 525
34576 285347 443
339020 263028 407
878674 284192 525
688052 418493 509
98324 154332 375
9170 93524 351
965405 87647 525
210423 524421 470
288868 962990 525
212605 188979 373
933902 974912 507
668805 655142 442
742138 697976 504
811501 90627 509
547870 730315 509
292902 383815 441
255745 547113 470
967439 571885 525
101367 472776 449
427110 121954 449
422251 610031 470
893103 183514 525
131532 421622 449
683017 819743 504
422243 781830 509
926936 121879 525
868278 524402 525
95928 58016 351
865966 247564 525
317458 708458 509
728289 771109 468
135769 78348 354
494991 556691 470
126721 54197 354
422796 986160 525
640974 627110 416
736054 920305 525
781093 862970 525
74175 309501 443
536255 318838 470
519620 508005 470
694583 79789 509
522754 264440 470
334997 724986 509
142836 603866 470
48684 530630 470
678761 266866 509
244214 533763 470
842393 731404 525
657357 432458 509
