....................
----------------------------------------------------------------------
Ran 20 tests in 0.027s

OK
Name             Stmts   Miss Branch BrPart  Cover   Missing
------------------------------------------------------------
Collatz.py          31      0     10      0   100%
TestCollatz.py      91      0      0      0   100%
------------------------------------------------------------
TOTAL              122      0     10      0   100%
